List2/Xand.vcd
$date
  Tue Feb 27 18:33:02 2018
$end
$version
  GHDL v0
$end
$timescale
  1 fs
$end
$var reg 4 ! a[3:0] $end
$var reg 4 " b[3:0] $end
$var reg 4 # c[3:0] $end
$scope module uut $end
$var reg 4 $ a[3:0] $end
$var reg 4 % b[3:0] $end
$var reg 4 & c[3:0] $end
$upscope $end
$enddefinitions $end
#0
b0000 !
b0000 "
b0000 #
b0000 $
b0000 %
b0000 &
#100000000
b0001 "
b0001 %
#110000000
b0010 "
b0010 %
#120000000
b0011 "
b0011 %
#130000000
b0100 "
b0100 %
#140000000
b0101 "
b0101 %
#150000000
b0110 "
b0110 %
#160000000
b0111 "
b0111 %
#170000000
b1000 "
b1000 %
#180000000
b1001 "
b1001 %
#190000000
b1010 "
b1010 %
#200000000
b1011 "
b1011 %
#210000000
b1100 "
b1100 %
#220000000
b1101 "
b1101 %
#230000000
b1110 "
b1110 %
#240000000
b1111 "
b1111 %
#250000000
b0000 "
b0000 %
#260000000
b0001 !
b0001 "
b0001 #
b0001 $
b0001 %
b0001 &
#270000000
b0010 "
b0000 #
b0010 %
b0000 &
#280000000
b0011 "
b0001 #
b0011 %
b0001 &
#290000000
b0100 "
b0000 #
b0100 %
b0000 &
#300000000
b0101 "
b0001 #
b0101 %
b0001 &
#310000000
b0110 "
b0000 #
b0110 %
b0000 &
#320000000
b0111 "
b0001 #
b0111 %
b0001 &
#330000000
b1000 "
b0000 #
b1000 %
b0000 &
#340000000
b1001 "
b0001 #
b1001 %
b0001 &
#350000000
b1010 "
b0000 #
b1010 %
b0000 &
#360000000
b1011 "
b0001 #
b1011 %
b0001 &
#370000000
b1100 "
b0000 #
b1100 %
b0000 &
#380000000
b1101 "
b0001 #
b1101 %
b0001 &
#390000000
b1110 "
b0000 #
b1110 %
b0000 &
#400000000
b1111 "
b0001 #
b1111 %
b0001 &
#410000000
b0000 "
b0000 #
b0000 %
b0000 &
#420000000
b0010 !
b0001 "
b0010 $
b0001 %
#430000000
b0010 "
b0010 #
b0010 %
b0010 &
#440000000
b0011 "
b0011 %
#450000000
b0100 "
b0000 #
b0100 %
b0000 &
#460000000
b0101 "
b0101 %
#470000000
b0110 "
b0010 #
b0110 %
b0010 &
#480000000
b0111 "
b0111 %
#490000000
b1000 "
b0000 #
b1000 %
b0000 &
#500000000
b1001 "
b1001 %
#510000000
b1010 "
b0010 #
b1010 %
b0010 &
#520000000
b1011 "
b1011 %
#530000000
b1100 "
b0000 #
b1100 %
b0000 &
#540000000
b1101 "
b1101 %
#550000000
b1110 "
b0010 #
b1110 %
b0010 &
#560000000
b1111 "
b1111 %
#570000000
b0000 "
b0000 #
b0000 %
b0000 &
#580000000
b0011 !
b0001 "
b0001 #
b0011 $
b0001 %
b0001 &
#590000000
b0010 "
b0010 #
b0010 %
b0010 &
#600000000
b0011 "
b0011 #
b0011 %
b0011 &
#610000000
b0100 "
b0000 #
b0100 %
b0000 &
#620000000
b0101 "
b0001 #
b0101 %
b0001 &
#630000000
b0110 "
b0010 #
b0110 %
b0010 &
#640000000
b0111 "
b0011 #
b0111 %
b0011 &
#650000000
b1000 "
b0000 #
b1000 %
b0000 &
#660000000
b1001 "
b0001 #
b1001 %
b0001 &
#670000000
b1010 "
b0010 #
b1010 %
b0010 &
#680000000
b1011 "
b0011 #
b1011 %
b0011 &
#690000000
b1100 "
b0000 #
b1100 %
b0000 &
#700000000
b1101 "
b0001 #
b1101 %
b0001 &
#710000000
b1110 "
b0010 #
b1110 %
b0010 &
#720000000
b1111 "
b0011 #
b1111 %
b0011 &
#730000000
b0000 "
b0000 #
b0000 %
b0000 &
#740000000
b0100 !
b0001 "
b0100 $
b0001 %
#750000000
b0010 "
b0010 %
#760000000
b0011 "
b0011 %
#770000000
b0100 "
b0100 #
b0100 %
b0100 &
#780000000
b0101 "
b0101 %
#790000000
b0110 "
b0110 %
#800000000
b0111 "
b0111 %
#810000000
b1000 "
b0000 #
b1000 %
b0000 &
#820000000
b1001 "
b1001 %
#830000000
b1010 "
b1010 %
#840000000
b1011 "
b1011 %
#850000000
b1100 "
b0100 #
b1100 %
b0100 &
#860000000
b1101 "
b1101 %
#870000000
b1110 "
b1110 %
#880000000
b1111 "
b1111 %
#890000000
b0000 "
b0000 #
b0000 %
b0000 &
#900000000
b0101 !
b0001 "
b0001 #
b0101 $
b0001 %
b0001 &
#910000000
b0010 "
b0000 #
b0010 %
b0000 &
#920000000
b0011 "
b0001 #
b0011 %
b0001 &
#930000000
b0100 "
b0100 #
b0100 %
b0100 &
#940000000
b0101 "
b0101 #
b0101 %
b0101 &
#950000000
b0110 "
b0100 #
b0110 %
b0100 &
#960000000
b0111 "
b0101 #
b0111 %
b0101 &
#970000000
b1000 "
b0000 #
b1000 %
b0000 &
#980000000
b1001 "
b0001 #
b1001 %
b0001 &
#990000000
b1010 "
b0000 #
b1010 %
b0000 &
#1000000000
b1011 "
b0001 #
b1011 %
b0001 &
#1010000000
b1100 "
b0100 #
b1100 %
b0100 &
#1020000000
b1101 "
b0101 #
b1101 %
b0101 &
#1030000000
b1110 "
b0100 #
b1110 %
b0100 &
#1040000000
b1111 "
b0101 #
b1111 %
b0101 &
#1050000000
b0000 "
b0000 #
b0000 %
b0000 &
#1060000000
b0110 !
b0001 "
b0110 $
b0001 %
#1070000000
b0010 "
b0010 #
b0010 %
b0010 &
#1080000000
b0011 "
b0011 %
#1090000000
b0100 "
b0100 #
b0100 %
b0100 &
#1100000000
b0101 "
b0101 %
#1110000000
b0110 "
b0110 #
b0110 %
b0110 &
#1120000000
b0111 "
b0111 %
#1130000000
b1000 "
b0000 #
b1000 %
b0000 &
#1140000000
b1001 "
b1001 %
#1150000000
b1010 "
b0010 #
b1010 %
b0010 &
#1160000000
b1011 "
b1011 %
#1170000000
b1100 "
b0100 #
b1100 %
b0100 &
#1180000000
b1101 "
b1101 %
#1190000000
b1110 "
b0110 #
b1110 %
b0110 &
#1200000000
b1111 "
b1111 %
#1210000000
b0000 "
b0000 #
b0000 %
b0000 &
#1220000000
b0111 !
b0001 "
b0001 #
b0111 $
b0001 %
b0001 &
#1230000000
b0010 "
b0010 #
b0010 %
b0010 &
#1240000000
b0011 "
b0011 #
b0011 %
b0011 &
#1250000000
b0100 "
b0100 #
b0100 %
b0100 &
#1260000000
b0101 "
b0101 #
b0101 %
b0101 &
#1270000000
b0110 "
b0110 #
b0110 %
b0110 &
#1280000000
b0111 "
b0111 #
b0111 %
b0111 &
#1290000000
b1000 "
b0000 #
b1000 %
b0000 &
#1300000000
b1001 "
b0001 #
b1001 %
b0001 &
#1310000000
b1010 "
b0010 #
b1010 %
b0010 &
#1320000000
b1011 "
b0011 #
b1011 %
b0011 &
#1330000000
b1100 "
b0100 #
b1100 %
b0100 &
#1340000000
b1101 "
b0101 #
b1101 %
b0101 &
#1350000000
b1110 "
b0110 #
b1110 %
b0110 &
#1360000000
b1111 "
b0111 #
b1111 %
b0111 &
#1370000000
b0000 "
b0000 #
b0000 %
b0000 &
#1380000000
b1000 !
b0001 "
b1000 $
b0001 %
#1390000000
b0010 "
b0010 %
#1400000000
b0011 "
b0011 %
#1410000000
b0100 "
b0100 %
#1420000000
b0101 "
b0101 %
#1430000000
b0110 "
b0110 %
#1440000000
b0111 "
b0111 %
#1450000000
b1000 "
b1000 #
b1000 %
b1000 &
#1460000000
b1001 "
b1001 %
#1470000000
b1010 "
b1010 %
#1480000000
b1011 "
b1011 %
#1490000000
b1100 "
b1100 %
#1500000000
b1101 "
b1101 %
#1510000000
b1110 "
b1110 %
#1520000000
b1111 "
b1111 %
#1530000000
b0000 "
b0000 #
b0000 %
b0000 &
#1540000000
b1001 !
b0001 "
b0001 #
b1001 $
b0001 %
b0001 &
#1550000000
b0010 "
b0000 #
b0010 %
b0000 &
#1560000000
b0011 "
b0001 #
b0011 %
b0001 &
#1570000000
b0100 "
b0000 #
b0100 %
b0000 &
#1580000000
b0101 "
b0001 #
b0101 %
b0001 &
#1590000000
b0110 "
b0000 #
b0110 %
b0000 &
#1600000000
b0111 "
b0001 #
b0111 %
b0001 &
#1610000000
b1000 "
b1000 #
b1000 %
b1000 &
#1620000000
b1001 "
b1001 #
b1001 %
b1001 &
#1630000000
b1010 "
b1000 #
b1010 %
b1000 &
#1640000000
b1011 "
b1001 #
b1011 %
b1001 &
#1650000000
b1100 "
b1000 #
b1100 %
b1000 &
#1660000000
b1101 "
b1001 #
b1101 %
b1001 &
#1670000000
b1110 "
b1000 #
b1110 %
b1000 &
#1680000000
b1111 "
b1001 #
b1111 %
b1001 &
#1690000000
b0000 "
b0000 #
b0000 %
b0000 &
#1700000000
b1010 !
b0001 "
b1010 $
b0001 %
#1710000000
b0010 "
b0010 #
b0010 %
b0010 &
#1720000000
b0011 "
b0011 %
#1730000000
b0100 "
b0000 #
b0100 %
b0000 &
#1740000000
b0101 "
b0101 %
#1750000000
b0110 "
b0010 #
b0110 %
b0010 &
#1760000000
b0111 "
b0111 %
#1770000000
b1000 "
b1000 #
b1000 %
b1000 &
#1780000000
b1001 "
b1001 %
#1790000000
b1010 "
b1010 #
b1010 %
b1010 &
#1800000000
b1011 "
b1011 %
#1810000000
b1100 "
b1000 #
b1100 %
b1000 &
#1820000000
b1101 "
b1101 %
#1830000000
b1110 "
b1010 #
b1110 %
b1010 &
#1840000000
b1111 "
b1111 %
#1850000000
b0000 "
b0000 #
b0000 %
b0000 &
#1860000000
b1011 !
b0001 "
b0001 #
b1011 $
b0001 %
b0001 &
#1870000000
b0010 "
b0010 #
b0010 %
b0010 &
#1880000000
b0011 "
b0011 #
b0011 %
b0011 &
#1890000000
b0100 "
b0000 #
b0100 %
b0000 &
#1900000000
b0101 "
b0001 #
b0101 %
b0001 &
#1910000000
b0110 "
b0010 #
b0110 %
b0010 &
#1920000000
b0111 "
b0011 #
b0111 %
b0011 &
#1930000000
b1000 "
b1000 #
b1000 %
b1000 &
#1940000000
b1001 "
b1001 #
b1001 %
b1001 &
#1950000000
b1010 "
b1010 #
b1010 %
b1010 &
#1960000000
b1011 "
b1011 #
b1011 %
b1011 &
#1970000000
b1100 "
b1000 #
b1100 %
b1000 &
#1980000000
b1101 "
b1001 #
b1101 %
b1001 &
#1990000000
b1110 "
b1010 #
b1110 %
b1010 &
#2000000000
b1111 "
b1011 #
b1111 %
b1011 &
#2010000000
b0000 "
b0000 #
b0000 %
b0000 &
#2020000000
b1100 !
b0001 "
b1100 $
b0001 %
#2030000000
b0010 "
b0010 %
#2040000000
b0011 "
b0011 %
#2050000000
b0100 "
b0100 #
b0100 %
b0100 &
#2060000000
b0101 "
b0101 %
#2070000000
b0110 "
b0110 %
#2080000000
b0111 "
b0111 %
#2090000000
b1000 "
b1000 #
b1000 %
b1000 &
#2100000000
b1001 "
b1001 %
#2110000000
b1010 "
b1010 %
#2120000000
b1011 "
b1011 %
#2130000000
b1100 "
b1100 #
b1100 %
b1100 &
#2140000000
b1101 "
b1101 %
#2150000000
b1110 "
b1110 %
#2160000000
b1111 "
b1111 %
#2170000000
b0000 "
b0000 #
b0000 %
b0000 &
#2180000000
b1101 !
b0001 "
b0001 #
b1101 $
b0001 %
b0001 &
#2190000000
b0010 "
b0000 #
b0010 %
b0000 &
#2200000000
b0011 "
b0001 #
b0011 %
b0001 &
#2210000000
b0100 "
b0100 #
b0100 %
b0100 &
#2220000000
b0101 "
b0101 #
b0101 %
b0101 &
#2230000000
b0110 "
b0100 #
b0110 %
b0100 &
#2240000000
b0111 "
b0101 #
b0111 %
b0101 &
#2250000000
b1000 "
b1000 #
b1000 %
b1000 &
#2260000000
b1001 "
b1001 #
b1001 %
b1001 &
#2270000000
b1010 "
b1000 #
b1010 %
b1000 &
#2280000000
b1011 "
b1001 #
b1011 %
b1001 &
#2290000000
b1100 "
b1100 #
b1100 %
b1100 &
#2300000000
b1101 "
b1101 #
b1101 %
b1101 &
#2310000000
b1110 "
b1100 #
b1110 %
b1100 &
#2320000000
b1111 "
b1101 #
b1111 %
b1101 &
#2330000000
b0000 "
b0000 #
b0000 %
b0000 &
#2340000000
b1110 !
b0001 "
b1110 $
b0001 %
#2350000000
b0010 "
b0010 #
b0010 %
b0010 &
#2360000000
b0011 "
b0011 %
#2370000000
b0100 "
b0100 #
b0100 %
b0100 &
#2380000000
b0101 "
b0101 %
#2390000000
b0110 "
b0110 #
b0110 %
b0110 &
#2400000000
b0111 "
b0111 %
#2410000000
b1000 "
b1000 #
b1000 %
b1000 &
#2420000000
b1001 "
b1001 %
#2430000000
b1010 "
b1010 #
b1010 %
b1010 &
#2440000000
b1011 "
b1011 %
#2450000000
b1100 "
b1100 #
b1100 %
b1100 &
#2460000000
b1101 "
b1101 %
#2470000000
b1110 "
b1110 #
b1110 %
b1110 &
#2480000000
b1111 "
b1111 %
#2490000000
b0000 "
b0000 #
b0000 %
b0000 &
#2500000000
b1111 !
b0001 "
b0001 #
b1111 $
b0001 %
b0001 &
#2510000000
b0010 "
b0010 #
b0010 %
b0010 &
#2520000000
b0011 "
b0011 #
b0011 %
b0011 &
#2530000000
b0100 "
b0100 #
b0100 %
b0100 &
#2540000000
b0101 "
b0101 #
b0101 %
b0101 &
#2550000000
b0110 "
b0110 #
b0110 %
b0110 &
#2560000000
b0111 "
b0111 #
b0111 %
b0111 &
#2570000000
b1000 "
b1000 #
b1000 %
b1000 &
#2580000000
b1001 "
b1001 #
b1001 %
b1001 &
#2590000000
b1010 "
b1010 #
b1010 %
b1010 &
#2600000000
b1011 "
b1011 #
b1011 %
b1011 &
#2610000000
b1100 "
b1100 #
b1100 %
b1100 &
#2620000000
b1101 "
b1101 #
b1101 %
b1101 &
#2630000000
b1110 "
b1110 #
b1110 %
b1110 &
#2640000000
b1111 "
b1111 #
b1111 %
b1111 &
#2650000000
b0000 "
b0000 #
b0000 %
b0000 &
#2660000000
b0000 !
b0000 $
