List2/zad5.vcd
$date
  Tue Mar 06 17:16:36 2018
$end
$version
  GHDL v0
$end
$timescale
  1 fs
$end
$var reg 1 ! a $end
$var reg 1 " b $end
$var reg 1 # c $end
$var reg 1 $ d $end
$var reg 4 % abcd[3:0] $end
$var reg 1 & x $end
$var reg 1 ' y $end
$var reg 1 ( z $end
$scope module uut $end
$var reg 1 ) a $end
$var reg 1 * b $end
$var reg 1 + c $end
$var reg 1 , d $end
$var reg 1 - x $end
$var reg 1 . y $end
$var reg 1 / z $end
$var reg 1 0 xor_nand $end
$var reg 1 1 nxor_g $end
$var reg 1 2 and_andn $end
$scope module g1 $end
$var reg 1 3 x $end
$var reg 1 4 y $end
$var reg 1 5 z $end
$upscope $end
$scope module g2 $end
$var reg 1 6 x $end
$var reg 1 7 y $end
$var reg 1 8 z $end
$upscope $end
$scope module g3 $end
$var reg 1 9 x $end
$var reg 1 : y $end
$var reg 1 ; z $end
$upscope $end
$scope module g4 $end
$var reg 1 < x $end
$var reg 1 = y $end
$var reg 1 > z $end
$upscope $end
$scope module g5 $end
$var reg 1 ? x $end
$var reg 1 @ z $end
$upscope $end
$scope module g6 $end
$var reg 1 A x $end
$var reg 1 B y $end
$var reg 1 C z $end
$upscope $end
$upscope $end
$enddefinitions $end
#0
0!
0"
0#
0$
b0000 %
U&
U'
U(
0)
0*
0+
0,
U-
U.
U/
U0
U1
U2
03
04
U5
06
07
U8
09
0:
U;
U<
U=
U>
U?
U@
UA
UB
UC
#1000000
U-
U.
U/
00
11
02
05
18
0;
0<
1=
U>
1?
U@
1A
0B
UC
#2000000
1&
0'
0(
1-
0.
0/
1>
0@
0C
#100000000
b0001 %
#110000000
1$
b0010 %
1,
1:
#111000000
0;
#120000000
1#
0$
b0011 %
1+
0,
17
19
0:
#121000000
01
08
0;
0=
0?
0A
#122000000
1'
1-
1.
0/
1>
1@
0C
#130000000
1$
b0100 %
1,
1:
#131000000
12
1;
1B
#132000000
1(
1/
1C
#140000000
1"
0#
0$
b0101 %
1*
0+
0,
14
16
07
09
0:
#141000000
10
02
15
08
0;
1<
0B
#142000000
0(
1-
0/
1>
0C
#150000000
1$
b0110 %
1,
1:
#151000000
0;
#160000000
1#
0$
b0111 %
1+
0,
17
19
0:
#161000000
11
18
0;
1=
1?
1A
#162000000
0&
0'
0-
0.
0/
0>
0@
0C
#170000000
1$
b1000 %
1,
1:
#171000000
12
1;
1B
#172000000
0/
0C
#180000000
1!
0"
0#
0$
b1001 %
1)
0*
0+
0,
13
04
06
07
09
0:
#181000000
02
15
18
0;
0B
#182000000
0/
0C
#190000000
1$
b1010 %
1,
1:
#191000000
0;
#200000000
1#
0$
b1011 %
1+
0,
17
19
0:
#201000000
01
08
0;
0=
0?
0A
#202000000
1&
1'
1-
1.
0/
1>
1@
0C
#210000000
1$
b1100 %
1,
1:
#211000000
12
1;
1B
#212000000
1(
1/
1C
#220000000
1"
0#
0$
b1101 %
1*
0+
0,
14
16
07
09
0:
#221000000
00
02
05
08
0;
0<
0B
#222000000
0(
1-
0/
1>
0C
#230000000
1$
b1110 %
1,
1:
#231000000
0;
#240000000
1#
0$
b1111 %
1+
0,
17
19
0:
#241000000
11
18
0;
1=
1?
1A
#242000000
0'
1-
0.
0/
1>
0@
0C
#250000000
1$
b0000 %
1,
1:
#251000000
12
1;
1B
#252000000
0/
0C
